Températures journalières par rapport à la moyenne annuelle
…
### Faisons pivoter l'ensemble
.panel1-pivot-auto[

```r
*dat%>%pivot_longer(cols=starts_with('month_'),
*                    names_to="month",
*                    names_prefix='month_',
*                    values_to='d_t')
```
]
 
.panel2-pivot-auto[

```
# A tibble: 93,000 x 4
    year   day month   d_t
   <int> <int> <chr> <int>
 1  1772     1 1        32
 2  1772     1 2       -15
 3  1772     1 3        18
 4  1772     1 4        25
 5  1772     1 5        87
 6  1772     1 6       128
 7  1772     1 7       187
 8  1772     1 8       177
 9  1772     1 9       105
10  1772     1 10      111
# ... with 92,990 more rows
```
…
```r
dat%>%pivot_longer(cols=starts_with('month_'),
                     names_to="month",
                     names_prefix='month_',
                     values_to='d_t') %>%
*       mutate(date=as.Date(paste0(day,'/',month,'/',year),
*                   format='%d/%m/%Y',
*                   origin='1/1/1990'))
```
]
 
.panel2-pivot-auto[

```
# A tibble: 93,000 x 5
    year   day month   d_t date      
   <int> <int> <chr> <int> <date>    
 1  1772     1 1        32 1772-01-01
 2  1772     1 2       -15 1772-02-01
 3  1772     1 3        18 1772-03-01
 4  1772     1 4        25 1772-04-01
 5  1772     1 5        87 1772-05-01
 6  1772     1 6       128 1772-06-01
 7  1772     1 7       187 1772-07-01
 8  1772     1 8       177 1772-08-01
 9  1772     1 9       105 1772-09-01
10  1772     1 10      111 1772-10-01
# ... with 92,990 more rows
```
…
.panel2-pivot-auto[

```
# A tibble: 93,000 x 2
   date         d_t
   <date>     <int>
 1 1772-01-01    32
 2 1772-02-01   -15
 3 1772-03-01    18
 4 1772-04-01    25
 5 1772-05-01    87
 6 1772-06-01   128
 7 1772-07-01   187
 8 1772-08-01   177
 9 1772-09-01   105
10 1772-10-01   111
# ... with 92,990 more rows
```
…
.panel2-pivot-auto[

```
# A tibble: 93,000 x 2
   date         d_t
   <date>     <int>
 1 1772-01-01    32
 2 1772-01-02    20
 3 1772-01-03    27
 4 1772-01-04    27
 5 1772-01-05    15
 6 1772-01-06    22
 7 1772-01-07    25
 8 1772-01-08     0
 9 1772-01-09     0
10 1772-01-10    45
# ... with 92,990 more rows
```
…
.panel2-pivot-auto[

```
# A tibble: 93,000 x 3
   date         d_t degre_C
   <date>     <int>   <dbl>
 1 1772-01-01    32     3.2
 2 1772-01-02    20     2  
 3 1772-01-03    27     2.7
 4 1772-01-04    27     2.7
 5 1772-01-05    15     1.5
 6 1772-01-06    22     2.2
 7 1772-01-07    25     2.5
 8 1772-01-08     0     0  
 9 1772-01-09     0     0  
10 1772-01-10    45     4.5
# ... with 92,990 more rows
```
…
.panel2-pivot-auto[

```
# A tibble: 91,250 x 3
   date         d_t degre_C
   <date>     <int>   <dbl>
 1 1772-01-01    32     3.2
 2 1772-01-02    20     2  
 3 1772-01-03    27     2.7
 4 1772-01-04    27     2.7
 5 1772-01-05    15     1.5
 6 1772-01-06    22     2.2
 7 1772-01-07    25     2.5
 8 1772-01-08     0     0  
 9 1772-01-09     0     0  
10 1772-01-10    45     4.5
# ... with 91,240 more rows
```
…
.panel2-pivot-auto[

```
# A tibble: 91,250 x 2
   date       degre_C
   <date>       <dbl>
 1 1772-01-01     3.2
 2 1772-01-02     2  
 3 1772-01-03     2.7
 4 1772-01-04     2.7
 5 1772-01-05     1.5
 6 1772-01-06     2.2
 7 1772-01-07     2.5
 8 1772-01-08     0  
 9 1772-01-09     0  
10 1772-01-10     4.5
# ... with 91,240 more rows
```
…
### Choisissons une année (1975?)
.panel1-dat_lim-user[

```r
dat_ %>% mutate(annee=lubridate::year(date)) %>%
            filter(annee==1975) -> dat_75
*dat_75
```
]
 
.panel2-dat_lim-user[

```
# A tibble: 365 x 3
   date       degre_C annee
   <date>       <dbl> <dbl>
 1 1975-01-01     7.5  1975
 2 1975-01-02     8.1  1975
 3 1975-01-03     8    1975
 4 1975-01-04     6.4  1975
 5 1975-01-05     7.5  1975
 6 1975-01-06     9.4  1975
 7 1975-01-07     7.2  1975
 8 1975-01-08     7.6  1975
 9 1975-01-09     7.9  1975
10 1975-01-10     8.9  1975
# ... with 355 more rows
```
…
### Distance à la moyenne
.panel1-dist-auto[

```r
dat_75_d<-dat_75 %>% mutate(dist=degre_C-mean(dat_75$degre_C),
                            pos=as.factor(ifelse(dist<0,'froid','chaud')))
*dat_75_d
```
]
 
.panel2-dist-auto[

```
# A tibble: 365 x 5
   date       degre_C annee   dist pos  
   <date>       <dbl> <dbl>  <dbl> <fct>
 1 1975-01-01     7.5  1975 -2.54  froid
 2 1975-01-02     8.1  1975 -1.94  froid
 3 1975-01-03     8    1975 -2.04  froid
 4 1975-01-04     6.4  1975 -3.64  froid
 5 1975-01-05     7.5  1975 -2.54  froid
 6 1975-01-06     9.4  1975 -0.637 froid
 7 1975-01-07     7.2  1975 -2.84  froid
 8 1975-01-08     7.6  1975 -2.44  froid
 9 1975-01-09     7.9  1975 -2.14  froid
10 1975-01-10     8.9  1975 -1.14  froid
# ... with 355 more rows
```
…
