…
Pour le second post de la série, nous examinons les diagrammes à bâtons pairés. Il s’agit ici de comparer les fréquences des différentes modalités d’une variable en mettant en perspective la situation prévalent sur deux groupes en mettant côte à côte les barres (bâtons) les représentant. Ce type de graphe peut, sans grandes difficultés, être étendu à plus de groupes . Néanmoins, il faut veiller à ce que l’ensemble reste lisible. Leur avantage est qu’ils facilitent les comparaisons en positionnant les valeurs sur une même échelle (qui dans l’idéal débute à 0). L’examen des positions des extrémités des barres donne une idée claire des proportions de différences entre les groupes. Ils ne sont par contre pas très efficaces pour mettre au jour des relations entre variables ou des tendances.

Voyons cela à partir d’un exemple concret en réalisant un diagramme à bâtons pairés avec GGPLOT. Pour ce faire, utilisons les données de l’ONU sur les populations urbaines et rurales dans le monde que vous pouvez télécharger à l’adresse en lien ici. Limitons-nous néanmoins à l’Afrique et comparons des situations prévalant sur différentes grandes zones géographiques.

Commençons par charger les packages utiles: le tidyverse et readxl.

library(tidyverse)
library(readxl)

Chargeons les données dans R (après les avoirs chargé sur votre machine) et regardons à quoi elles ressemblent.

dat <- read_excel("WUP2018-F01-Total_Urban_Rural.xls",skip = 16)
dat

## # A tibble: 273 × 8
##    Index Region, subregion, country…¹ Note  Count…²  Urban  Rural  Total Perce…³
##    <dbl> <chr>                        <chr>   <dbl>  <dbl>  <dbl>  <dbl>   <dbl>
##  1     1 WORLD                        <NA>      900 4.22e6 3.41e6 7.63e6    55.3
##  2     2 More developed regions       a         901 9.94e5 2.69e5 1.26e6    78.7
##  3     3 Less developed regions       b         902 3.23e6 3.14e6 6.37e6    50.6
##  4     4 Least developed countries    c         941 3.44e5 6.82e5 1.03e6    33.6
##  5     5 Less developed regions, exc… d         934 2.88e6 2.46e6 5.34e6    53.9
##  6     6 Less developed regions, exc… <NA>      948 2.36e6 2.56e6 4.92e6    48.0
##  7     7 High-income countries        e        1503 9.75e5 2.22e5 1.20e6    81.5
##  8     8 Middle-income countries      e        1517 3.02e6 2.72e6 5.74e6    52.6
##  9     9 Upper-middle-income countri… e        1502 1.76e6 8.81e5 2.64e6    66.6
## 10    10 Lower-middle-income countri… e        1501 1.26e6 1.84e6 3.10e6    40.6
## # … with 263 more rows, and abbreviated variable names
## #   ¹​`Region, subregion, country or area`, ²​`Country\ncode`,
## #   ³​`Percentage urban`
…
