…
<img src="{{< blogdown/postref >}}index_files/figure-html/unnamed-chunk-17-1.png" width="768" />

Les strip plot ne sont pas réellement adaptés à des échantillons trop gros. D’autres graphes peuvent apparaître plus pertinent. Mais, si l’on veut continuer à travailler avec ce type de représentation, on peut procéder à des regroupements de données de manières à simplifier les informations. On est alors dans une forme de bin plot. Calculons les rendements journaliers moyenne sur chaque mois (ajoutons la médiane). Marquons également les trimestres pour les utiliser plus tard pour mieux distinguer l’enchaînement des mois.

dat %>% group_by(day_lab,mois_lab) %>% 
  reframe(moy_md=round(mean(ret),digits=6),
          med_md=round(median(ret),digits=6))->dd
dd

## # A tibble: 60 × 4
##    day_lab mois_lab     moy_md    med_md
##    <ord>   <ord>         <dbl>     <dbl>
##  1 lundi   janvier    0.000105 -0.00018 
##  2 lundi   février   -0.000878 -0.000659
##  3 lundi   mars      -0.000464  0       
##  4 lundi   avril      0.000046  0.000369
##  5 lundi   mai       -0.000593 -0.0005  
##  6 lundi   juin      -0.00105  -0.000688
##  7 lundi   juillet   -0.00045   0       
##  8 lundi   août      -0.000889  0.00006 
##  9 lundi   septembre -0.00171  -0.000716
## 10 lundi   octobre   -0.000243  0.000235
## # ℹ 50 more rows
…
<img src="{{< blogdown/postref >}}index_files/figure-html/unnamed-chunk-21-1.png" width="768" />

La médiane donne moins de poids aux valeurs extrêmes. Il en résulte des points plus proches les uns des autres.

On peut réaliser le graphe pour la période 1954-77 et ajouter des informations complémentaires comme de la couleur pour distinguer les mois et des formes pour les trimestres. Revenons sur la configuration avec les moyennes. Commençons par préparer les données.

dat %>% filter(date>date("1953/01/01")&
               date<date("1977/12/31")) %>% 
  group_by(day_lab,mois_lab) %>% 
  reframe(moy_md=round(mean(ret),digits=6),
            trim=unique(trimestre))->dd_54_77
dd_54_77

## # A tibble: 60 × 4
##    day_lab mois_lab     moy_md  trim
##    <ord>   <ord>         <dbl> <int>
##  1 lundi   janvier   -0.000522     1
##  2 lundi   février   -0.00235      1
##  3 lundi   mars      -0.000523     1
##  4 lundi   avril      0.000291     2
##  5 lundi   mai       -0.00406      2
##  6 lundi   juin      -0.00126      2
##  7 lundi   juillet   -0.00128      3
##  8 lundi   août      -0.00192      3
##  9 lundi   septembre -0.00332      3
## 10 lundi   octobre   -0.000195     4
## # ℹ 50 more rows
…
