…
##   nb_communauté com_traitée com_controle
## 1            54          26           28

Les mesures sont faites sur 54 communautés dont 26 disposent de cliniques et 28 n’en disposent pas. Voyons ce qu’il en est des observations pour chaque communauté. Ce faisant, identifions les observations pré et post traitement (le passage à la gratuité en 94).

dat %>% group_by(idcommunity) %>% 
  summarise(nb_obs=n(),
            statut=ifelse(sum(hightreat)==nb_obs,"traité","control"),
            obs_pre=nb_obs-sum(post),
            obs_post=sum(post))

## # A tibble: 54 × 5
##    idcommunity nb_obs statut  obs_pre obs_post
##          <dbl>  <int> <chr>     <dbl>    <dbl>
##  1          59     12 traité        5        7
##  2          70     15 control       7        8
##  3          71     16 traité       10        6
##  4          74      3 control       2        1
##  5          77      1 traité        1        0
##  6          78     23 traité       14        9
##  7          79     20 control      10       10
##  8          80     32 traité        8       24
##  9         193     19 traité       13        6
## 10         195     10 traité        6        4
## # ℹ 44 more rows
…
On a 46 hôpitaux. Combien y a-t-il d’observations par hôpital?

dat2 %>% count(hospital) %>% summarise(moy=mean(n))

## # A tibble: 1 × 1
##     moy
##   <dbl>
## 1  160.

On a en moyenne 160 observations par hôpital. Combien y a t-il d’observations par mois pour chaque hôpital?

dat2 %>% group_by(hospital,month) %>% count() 

## # A tibble: 322 × 3
## # Groups:   hospital, month [322]
##    hospital month            n
##       <dbl> <dbl+lbl>    <int>
##  1        1 1 [January]     46
##  2        1 2 [February]    23
##  3        1 3 [March]       23
##  4        1 4 [April]       23
##  5        1 5 [May]         23
##  6        1 6 [June]        23
##  7        1 7 [July]        23
##  8        2 1 [January]     42
##  9        2 2 [February]    21
## 10        2 3 [March]       21
## # ℹ 312 more rows
…
