…
Mais, au préalable, chargeons deux packages, le classique tidyverse ainsi que nbastatR, qui va scrapper dans le site basketball-reference.com les informations désirées. Pour plus d’information sur ce package et son installation, je vous renvois son site compagnon.

library(tidyverse)
library(nbastatR)

Utilisons la fonction drafts() indiquant les années recherchées.

draft_1 <- drafts(draft_years = 1983:2018,
                    nest_data = FALSE,
                    return_message = FALSE) %>% 
           filter(numberPickOverall==1)

draft_1

## # A tibble: 36 x 18
##     ...1 yearDraft numberPickOverall numberRound numberRoundPick namePlayer     
##    <dbl>     <dbl>             <dbl>       <dbl>           <dbl> <chr>          
##  1     1      2018                 1           1               1 Deandre Ayton  
##  2     2      2017                 1           1               1 Markelle Fultz 
##  3     3      2016                 1           1               1 Ben Simmons    
##  4     4      2015                 1           1               1 Karl-Anthony T~
##  5     5      2014                 1           1               1 Andrew Wiggins 
##  6     6      2013                 1           1               1 Anthony Bennett
##  7     7      2012                 1           1               1 Anthony Davis  
##  8     8      2011                 1           1               1 Kyrie Irving   
##  9     9      2010                 1           1               1 John Wall      
## 10    10      2009                 1           1               1 Blake Griffin  
## # ... with 26 more rows, and 12 more variables: slugTeam <chr>,
## #   nameOrganizationFrom <chr>, typeOrganizationFrom <chr>, idPlayer <dbl>,
## #   idTeam <dbl>, nameTeam <chr>, cityTeam <chr>, teamName <chr>,
## #   PLAYER_PROFILE_FLAG <dbl>, slugOrganizationTypeFrom <chr>,
## #   locationOrganizationFrom <chr>, nom_eq <chr>
…
