…
## 
##  Hausman Test
## 
## data:  lwage ~ wks
## chisq = 4.3878, df = 1, p-value = 0.0362
## alternative hypothesis: one model is inconsistent

Le modèle à effet aléatoire est diagnostiqué comme inconsistant. Le modèle à effet fixe apparaît ici comme le meilleur. Mais en quoi consiste-t-il au juste?

Dans sa version la plus simple, il s’agit d’une estimation par les MCO d’un modèle incluant une variable indicatrice par individu (id). Ici, on aura donc 595 variables binaire supplémentaire (moins une si on garde la constante dans le modèle).

dum_mod<-lm(lwage~wks+factor(id)-1,data=wages) 
dum_mod%>% tidy()

## # A tibble: 596 × 5
##    term        estimate std.error statistic p.value
##    <chr>          <dbl>     <dbl>     <dbl>   <dbl>
##  1 wks          0.00101   0.00102     0.988   0.323
##  2 factor(id)1  5.93      0.105      56.3     0    
##  3 factor(id)2  6.47      0.103      62.6     0    
##  4 factor(id)3  6.46      0.111      58.3     0    
##  5 factor(id)4  6.34      0.110      57.8     0    
##  6 factor(id)5  6.86      0.109      62.8     0    
##  7 factor(id)6  7.05      0.109      64.8     0    
##  8 factor(id)7  6.26      0.109      57.3     0    
##  9 factor(id)8  6.54      0.110      59.3     0    
## 10 factor(id)9  6.85      0.110      62.4     0    
## # … with 586 more rows
…
