…
Comme à chaque fois, commençons par charger les packages que nous mobiliserons par la suite (le tidyverse,readxl,scales,formattable et ggtext).

library(tidyverse)
library(readxl)
library(scales)
library(formattable)
library(ggtext)

Ceci fait, chargeons les données et regardons ce que la base contient avant commencer le travail.

dat <- read_excel("Women in the House of Representatives.xlsx")
dat

## # A tibble: 51 x 9
##    Congress Years     `Women total` Republican `% of women (Re~ `% of party (Re~
##    <chr>    <chr>             <dbl>      <dbl>            <dbl>            <dbl>
##  1 65th     1917–1919             1          1            1                0.005
##  2 66th     1919–1921             0          0            0                0    
##  3 67th     1921–1923             3          3            1                0.003
##  4 68th     1923–1925             1          1            1                0.004
##  5 69th     1925–1927             3          2            0.667            0.004
##  6 70th     1927–1929             5          3            0.6              0.013
##  7 71st     1929–1931             9          5            0.556            0.019
##  8 72nd     1931–1933             7          3            0.429            0.014
##  9 73rd     1933–1935             7          3            0.429            0.017
## 10 74th     1935–1937             6          2            0.333            0.019
## # ... with 41 more rows, and 3 more variables: Democratic <dbl>,
## #   % of women (Dem) <dbl>, % of party (Dem) <dbl>
…
<img src="{{< blogdown/postref >}}index_files/figure-html/unnamed-chunk-7-1.png" width="672" />

On voit que a proportion de femmes parmi élus a plus progressé sur la période mais que l’on est toujours loin de la parité.

Pour que la comparaison soit plus simple mettons les deux graphes côtes à côtes en utilisant facet_grid(). Pour cela, il faut au préalable procéder à quelques transformations. Profitons-en pour intégrer la forme de la variable Congress utilisée dans le graphe. Puis faisons basculer la base pour avoir une colonne pourcentage d’élues femmes et une colonne parti qui prendra une forme binaire (Républicains/Démocrates).

dat_<-dat %>% select(Congress,`% of party (Rep)`,`% of party (Dem)`) %>% 
  mutate(Congress=fct_rev(reorder(factor(Congress),1:51))) %>% 
  pivot_longer(cols=starts_with("% of party"),
               values_to = 'pr_fem',
               names_to = 'parti') %>% 
  mutate(partie=ifelse(parti=='% of party (Rep)','Républicains','Démocrates'))
dat_

## # A tibble: 102 x 4
##    Congress parti            pr_fem partie      
##    <fct>    <chr>             <dbl> <chr>       
##  1 65th     % of party (Rep)  0.005 Républicains
##  2 65th     % of party (Dem)  0     Démocrates  
##  3 66th     % of party (Rep)  0     Républicains
##  4 66th     % of party (Dem)  0     Démocrates  
##  5 67th     % of party (Rep)  0.003 Républicains
##  6 67th     % of party (Dem)  0     Démocrates  
##  7 68th     % of party (Rep)  0.004 Républicains
##  8 68th     % of party (Dem)  0     Démocrates  
##  9 69th     % of party (Rep)  0.004 Républicains
## 10 69th     % of party (Dem)  0.005 Démocrates  
## # ... with 92 more rows
…
