…
Statistiques descriptives

Pour avoir une idée de la présence ou non de l’effet, procédons à une analyse descriptive rapide. Commençons par calculer les rendements moyens de chaque jours du mois.

tab<-dat_ %>% group_by(day_of_m) %>% 
  summarise(n=n(),
            moy=round(mean(ret),digits=6))
tab

## # A tibble: 23 × 3
##    day_of_m     n       moy
##       <int> <int>     <dbl>
##  1        1   732  0.00126 
##  2        2   732  0.000914
##  3        3   732  0.00103 
##  4        4   732  0.000258
##  5        5   732 -0.000155
##  6        6   732  0.000119
##  7        7   732  0.000249
##  8        8   732 -0.000037
##  9        9   732  0.000488
## 10       10   732  0.000312
## # ℹ 13 more rows
…
